{
  "data": [
    {
      "countryCode": "us",
      "reviewCount": 1290,
      "wishlistName": "Concord",
      "checkinDate": "2025-01-10",
      "id": 394500,
      "priceBreakdown": {
        "taxExceptions": [],
        "grossPrice": {
          "value": 138.6,
          "currency": "USD",
          "amountRounded": "$139"
        },
        "benefitBadges": [],
        "excludedPrice": { "currency": "USD", "value": 18.0180000000001 }
      },
      "checkoutDate": "2025-01-11",
      "qualityClass": 0,
      "optOutFromGalleryChanges": 0,
      "ufi": 20091765,
      "longitude": -80.7091847062111,
      "photoUrls": [
        "https://cf.bstatic.com/xdata/images/hotel/square60/523581457.jpg?k=d2bd6f6bf3e0591c268677aba8dfc6b6ae5fb587ec837b19cae39963171d2f92&o="
      ],
      "reviewScore": 8.4,
      "blockIds": ["39450009_246071402_2_1_0"],
      "rankingPosition": 0,
      "latitude": 35.3699474048582,
      "position": 0,
      "isFirstPage": true,
      "accuratePropertyClass": 3,
      "name": "Wingate by Wyndham Charlotte Concord Mills/Speedway",
      "checkin": { "untilTime": "00:00", "fromTime": "15:00" },
      "reviewScoreWord": "Very Good",
      "currency": "USD",
      "mainPhotoId": 523581457,
      "checkout": { "untilTime": "11:00", "fromTime": "00:00" },
      "isPreferred": true,
      "propertyClass": 3
    },
    {
      "optOutFromGalleryChanges": 0,
      "qualityClass": 0,
      "checkoutDate": "2025-01-11",
      "ufi": 20091765,
      "photoUrls": [
        "https://cf.bstatic.com/xdata/images/hotel/square60/521223764.jpg?k=d6358529c29b0ae0ee1e2eccadc0b0e3028ec2107e6cf6d06320822433842e4c&o="
      ],
      "longitude": -80.5846383422613,
      "countryCode": "us",
      "priceBreakdown": {
        "taxExceptions": [],
        "grossPrice": {
          "value": 116.1,
          "amountRounded": "$116",
          "currency": "USD"
        },
        "benefitBadges": [
          {
            "explanation": "Secret Deal",
            "identifier": "Secret Deal",
            "text": "Secret Deal",
            "variant": "constructive"
          }
        ],
        "excludedPrice": { "value": 15.0930000000001, "currency": "USD" }
      },
      "reviewCount": 867,
      "wishlistName": "Concord",
      "checkinDate": "2025-01-10",
      "id": 258865,
      "currency": "USD",
      "checkin": { "fromTime": "15:00", "untilTime": "00:00" },
      "reviewScoreWord": "Very Good",
      "mainPhotoId": 521223764,
      "checkout": { "fromTime": "00:00", "untilTime": "12:00" },
      "propertyClass": 2,
      "isPreferred": true,
      "rankingPosition": 1,
      "blockIds": ["25886501_375353401_4_1_0"],
      "reviewScore": 8.1,
      "isFirstPage": true,
      "latitude": 35.463290452433,
      "position": 1,
      "accuratePropertyClass": 2,
      "name": "Country Inn & Suites by Radisson, Concord (Kannapolis), NC"
    },
    {
      "ufi": 20091765,
      "photoUrls": [
        "https://cf.bstatic.com/xdata/images/hotel/square60/169876074.jpg?k=c59954086477f2dc09f039dc7690b56a766a2d0911989e2005fdd327cad20848&o="
      ],
      "longitude": -80.7105848193169,
      "optOutFromGalleryChanges": 0,
      "qualityClass": 0,
      "checkoutDate": "2025-01-11",
      "countryCode": "us",
      "priceBreakdown": {
        "taxExceptions": [],
        "benefitBadges": [],
        "grossPrice": {
          "value": 102.6,
          "currency": "USD",
          "amountRounded": "$103"
        },
        "excludedPrice": { "value": 13.3380000000001, "currency": "USD" }
      },
      "id": 490668,
      "wishlistName": "Concord",
      "checkinDate": "2025-01-10",
      "reviewCount": 733,
      "checkout": { "untilTime": "11:00", "fromTime": "00:00" },
      "propertyClass": 2,
      "isPreferred": true,
      "currency": "USD",
      "checkin": { "untilTime": "00:00", "fromTime": "15:00" },
      "reviewScoreWord": "Good",
      "mainPhotoId": 169876074,
      "accuratePropertyClass": 2,
      "name": "Sleep Inn & Suites at Concord Mills",
      "rankingPosition": 2,
      "blockIds": ["49066803_94477807_2_1_0"],
      "reviewScore": 7.3,
      "isFirstPage": true,
      "position": 2,
      "latitude": 35.3700567626737
    },
    {
      "countryCode": "us",
      "priceBreakdown": {
        "excludedPrice": { "currency": "USD", "value": 25.8700000000001 },
        "benefitBadges": [],
        "grossPrice": {
          "amountRounded": "$199",
          "currency": "USD",
          "value": 199
        },
        "taxExceptions": []
      },
      "wishlistName": "Concord",
      "checkinDate": "2025-01-10",
      "id": 294574,
      "reviewCount": 448,
      "optOutFromGalleryChanges": 0,
      "qualityClass": 0,
      "checkoutDate": "2025-01-11",
      "ufi": 20091765,
      "photoUrls": [
        "https://cf.bstatic.com/xdata/images/hotel/square60/485822683.jpg?k=1cfc60d79807af0403f12c5f3350d2849a48cf5b61f935ed5f240dabe3be766f&o="
      ],
      "longitude": -80.7102280855179,
      "rankingPosition": 3,
      "blockIds": ["29457411_266277245_2_2_0"],
      "reviewScore": 8.7,
      "isFirstPage": true,
      "position": 3,
      "latitude": 35.3706297952042,
      "accuratePropertyClass": 3,
      "name": "Hilton Garden Inn Charlotte/Concord",
      "currency": "USD",
      "checkin": { "fromTime": "15:00", "untilTime": "00:00" },
      "reviewScoreWord": "Excellent",
      "mainPhotoId": 485822683,
      "checkout": { "fromTime": "00:00", "untilTime": "12:00" },
      "propertyClass": 3,
      "isPreferred": true
    },
    {
      "currency": "USD",
      "checkin": { "untilTime": "00:00", "fromTime": "15:00" },
      "reviewScoreWord": "Good",
      "mainPhotoId": 169877596,
      "checkout": { "fromTime": "00:00", "untilTime": "11:00" },
      "propertyClass": 2,
      "isPreferred": true,
      "rankingPosition": 4,
      "reviewScore": 7.6,
      "blockIds": ["49067905_94477844_2_1_0"],
      "isFirstPage": true,
      "position": 4,
      "latitude": 35.3689303700779,
      "accuratePropertyClass": 2,
      "name": "Comfort Suites Concord Mills",
      "optOutFromGalleryChanges": 0,
      "qualityClass": 0,
      "checkoutDate": "2025-01-11",
      "ufi": 20091765,
      "photoUrls": [
        "https://cf.bstatic.com/xdata/images/hotel/square60/169877596.jpg?k=3d026454e394e3a0d7121e13a9c2e650c83cc02cf86911f3b4a52a29afe302ec&o="
      ],
      "longitude": -80.7109268009663,
      "countryCode": "us",
      "priceBreakdown": {
        "taxExceptions": [],
        "excludedPrice": { "value": 16.2630000000001, "currency": "USD" },
        "benefitBadges": [],
        "grossPrice": {
          "value": 125.1,
          "currency": "USD",
          "amountRounded": "$125"
        }
      },
      "wishlistName": "Concord",
      "checkinDate": "2025-01-10",
      "id": 490679,
      "reviewCount": 461
    },
    {
      "name": "Residence Inn Charlotte Concord",
      "accuratePropertyClass": 2,
      "isFirstPage": true,
      "position": 5,
      "latitude": 35.3641359174082,
      "rankingPosition": 5,
      "blockIds": ["26698401_246427764_0_1_0"],
      "reviewScore": 8.8,
      "propertyClass": 2,
      "isPreferred": true,
      "checkout": { "fromTime": "00:00", "untilTime": "11:00" },
      "mainPhotoId": 444107105,
      "currency": "USD",
      "checkin": { "untilTime": "00:00", "fromTime": "15:00" },
      "reviewScoreWord": "Excellent",
      "priceBreakdown": {
        "excludedPrice": { "value": 29.7700000000001, "currency": "USD" },
        "grossPrice": {
          "amountRounded": "$229",
          "currency": "USD",
          "value": 229
        },
        "benefitBadges": [],
        "taxExceptions": []
      },
      "wishlistName": "Concord",
      "reviewCount": 273,
      "id": 266984,
      "checkinDate": "2025-01-10",
      "countryCode": "us",
      "photoUrls": [
        "https://cf.bstatic.com/xdata/images/hotel/square60/444107105.jpg?k=4dadd9c2b99feaae86ca9c81a3f2d2850308d001c9a777ef9bfd1c8981aa08b2&o="
      ],
      "longitude": -80.7033589482307,
      "ufi": 20091765,
      "optOutFromGalleryChanges": 0,
      "checkoutDate": "2025-01-11",
      "qualityClass": 0
    },
    {
      "optOutFromGalleryChanges": 0,
      "checkoutDate": "2025-01-11",
      "qualityClass": 0,
      "ufi": 20091765,
      "photoUrls": [
        "https://cf.bstatic.com/xdata/images/hotel/square60/446984385.jpg?k=197c2a7360848ce73ef8ab271c025c17e3b5908a493cf89fc15e3ca648aad77b&o="
      ],
      "longitude": -80.7031215727329,
      "countryCode": "us",
      "priceBreakdown": {
        "taxExceptions": [],
        "excludedPrice": { "value": 24.5700000000001, "currency": "USD" },
        "benefitBadges": [],
        "grossPrice": {
          "value": 189,
          "currency": "USD",
          "amountRounded": "$189"
        }
      },
      "id": 266985,
      "wishlistName": "Concord",
      "reviewCount": 301,
      "checkinDate": "2025-01-10",
      "currency": "USD",
      "reviewScoreWord": "Very Good",
      "checkin": { "fromTime": "15:00", "untilTime": "00:00" },
      "mainPhotoId": 446984385,
      "checkout": { "untilTime": "11:00", "fromTime": "00:00" },
      "propertyClass": 3,
      "isPreferred": true,
      "rankingPosition": 6,
      "blockIds": ["26698501_246427765_0_2_0"],
      "reviewScore": 8.4,
      "isFirstPage": true,
      "latitude": 35.3634425354932,
      "position": 6,
      "accuratePropertyClass": 3,
      "name": "Courtyard Charlotte Concord"
    },
    {
      "wishlistName": "Concord",
      "checkinDate": "2025-01-10",
      "id": 189841,
      "reviewCount": 263,
      "priceBreakdown": {
        "benefitBadges": [],
        "grossPrice": {
          "amountRounded": "$169",
          "currency": "USD",
          "value": 169
        },
        "excludedPrice": { "currency": "USD", "value": 21.9700000000001 },
        "taxExceptions": []
      },
      "countryCode": "us",
      "longitude": -80.7114920765162,
      "photoUrls": [
        "https://cf.bstatic.com/xdata/images/hotel/square60/540544614.jpg?k=6d36326665cda007aa2d32aec7d1bb94cd366673677cb84f7fbe8223415099b9&o="
      ],
      "ufi": 20091765,
      "qualityClass": 0,
      "checkoutDate": "2025-01-11",
      "optOutFromGalleryChanges": 0,
      "name": "SpringHill Suites by Marriott Charlotte / Concord Mills Speedway",
      "accuratePropertyClass": 3,
      "position": 7,
      "latitude": 35.369561917377,
      "isFirstPage": true,
      "blockIds": ["18984105_246423532_0_1_0"],
      "reviewScore": 8,
      "rankingPosition": 7,
      "isPreferred": true,
      "propertyClass": 3,
      "checkout": { "untilTime": "11:00", "fromTime": "00:00" },
      "mainPhotoId": 540544614,
      "checkin": { "fromTime": "15:00", "untilTime": "00:00" },
      "reviewScoreWord": "Very Good",
      "currency": "USD"
    },
    {
      "reviewScoreWord": "Good",
      "checkin": { "fromTime": "15:00", "untilTime": "00:00" },
      "currency": "USD",
      "mainPhotoId": 220026052,
      "checkout": { "fromTime": "00:00", "untilTime": "11:00" },
      "propertyClass": 2,
      "reviewScore": 7.3,
      "blockIds": ["39265209_0_1_1_0"],
      "rankingPosition": 8,
      "position": 8,
      "latitude": 35.443101,
      "isFirstPage": true,
      "accuratePropertyClass": 2,
      "name": "Quality Inn Concord Kannapolis",
      "qualityClass": 0,
      "checkoutDate": "2025-01-11",
      "optOutFromGalleryChanges": 0,
      "ufi": 20091765,
      "longitude": -80.609784,
      "photoUrls": [
        "https://cf.bstatic.com/xdata/images/hotel/square60/220026052.jpg?k=f1b461a7f386e5526f0e2ac85d69c4410a7ab4d6772d30d174bba0d33fc536c4&o="
      ],
      "countryCode": "us",
      "id": 392652,
      "wishlistName": "Concord",
      "checkinDate": "2025-01-10",
      "reviewCount": 590,
      "priceBreakdown": {
        "taxExceptions": [],
        "benefitBadges": [],
        "grossPrice": {
          "value": 85.0000000000001,
          "currency": "USD",
          "amountRounded": "$85"
        },
        "excludedPrice": { "currency": "USD", "value": 11.0500000000001 }
      }
    },
    {
      "propertyClass": 2,
      "checkout": { "fromTime": "07:00", "untilTime": "11:00" },
      "mainPhotoId": 374591704,
      "checkin": { "fromTime": "15:00", "untilTime": "22:00" },
      "reviewScoreWord": "Fair",
      "currency": "USD",
      "name": "HomeTowne Studios & Suites by Red Roof Charlotte - Concord",
      "accuratePropertyClass": 2,
      "position": 9,
      "latitude": 35.3643360565064,
      "isFirstPage": true,
      "reviewScore": 5.1,
      "blockIds": ["49071508_125195237_4_0_0"],
      "rankingPosition": 9,
      "longitude": -80.7099987566471,
      "photoUrls": [
        "https://cf.bstatic.com/xdata/images/hotel/square60/374591704.jpg?k=a1b70346768bd4c68db16879c10209faa07f06876f96638795a493b7d2f39223&o="
      ],
      "ufi": 20091765,
      "checkoutDate": "2025-01-11",
      "qualityClass": 0,
      "optOutFromGalleryChanges": 0,
      "wishlistName": "Concord",
      "id": 490715,
      "checkinDate": "2025-01-10",
      "reviewCount": 325,
      "priceBreakdown": {
        "strikethroughPrice": {
          "value": 71.9900000000001,
          "amountRounded": "$72",
          "currency": "USD"
        },
        "taxExceptions": [],
        "excludedPrice": { "value": 8.42270000000009, "currency": "USD" },
        "grossPrice": {
          "currency": "USD",
          "amountRounded": "$65",
          "value": 64.7900000000001
        },
        "benefitBadges": []
      },
      "countryCode": "us"
    },
    {
      "position": 10,
      "latitude": 35.4413123032261,
      "isFirstPage": true,
      "blockIds": ["28091801_287717258_0_0_0"],
      "reviewScore": 7.3,
      "rankingPosition": 10,
      "name": "Cabarrus Inn",
      "accuratePropertyClass": 2,
      "mainPhotoId": 265546180,
      "checkin": { "untilTime": "00:00", "fromTime": "15:00" },
      "reviewScoreWord": "Good",
      "currency": "USD",
      "propertyClass": 2,
      "checkout": { "untilTime": "11:00", "fromTime": "00:00" },
      "id": 280918,
      "wishlistName": "Concord",
      "reviewCount": 216,
      "checkinDate": "2025-01-10",
      "priceBreakdown": {
        "taxExceptions": [],
        "grossPrice": {
          "amountRounded": "$66",
          "currency": "USD",
          "value": 65.9500000000001
        },
        "benefitBadges": [],
        "excludedPrice": { "value": 8.57350000000009, "currency": "USD" }
      },
      "countryCode": "us",
      "checkoutDate": "2025-01-11",
      "qualityClass": 0,
      "optOutFromGalleryChanges": 0,
      "longitude": -80.6088043749332,
      "photoUrls": [
        "https://cf.bstatic.com/xdata/images/hotel/square60/265546180.jpg?k=0a5c05e72bde7243ce4919b22f7e1538f9b0bc403d0939837e56ca81d71c2a7a&o="
      ],
      "ufi": 20091765
    },
    {
      "propertyClass": 2,
      "checkout": { "fromTime": "00:00", "untilTime": "11:00" },
      "mainPhotoId": 224904322,
      "checkin": { "untilTime": "00:00", "fromTime": "15:00" },
      "reviewScoreWord": "Very Good",
      "currency": "USD",
      "name": "Holiday Inn Express & Suites Charlotte-Concord-I-85, an IHG Hotel",
      "accuratePropertyClass": 2,
      "position": 11,
      "latitude": 35.3682260933227,
      "isFirstPage": true,
      "blockIds": ["18969805_244946890_4_1_0"],
      "reviewScore": 8.5,
      "rankingPosition": 11,
      "longitude": -80.7105016708373,
      "photoUrls": [
        "https://cf.bstatic.com/xdata/images/hotel/square60/224904322.jpg?k=1387531c17d228e9211091981fa5e8c90ec556b29045a98d9f8a0d93fee5c06d&o="
      ],
      "ufi": 20091765,
      "qualityClass": 0,
      "checkoutDate": "2025-01-11",
      "optOutFromGalleryChanges": 0,
      "reviewCount": 244,
      "wishlistName": "Concord",
      "id": 189698,
      "checkinDate": "2025-01-10",
      "priceBreakdown": {
        "taxExceptions": [],
        "excludedPrice": { "currency": "USD", "value": 18.0700000000001 },
        "grossPrice": {
          "currency": "USD",
          "amountRounded": "$139",
          "value": 139
        },
        "benefitBadges": []
      },
      "countryCode": "us"
    },
    {
      "countryCode": "us",
      "priceBreakdown": {
        "excludedPrice": { "value": 38.8700000000001, "currency": "USD" },
        "benefitBadges": [],
        "grossPrice": {
          "currency": "USD",
          "amountRounded": "$299",
          "value": 299
        },
        "taxExceptions": []
      },
      "reviewCount": 245,
      "wishlistName": "Concord",
      "id": 1969032,
      "checkinDate": "2025-01-10",
      "optOutFromGalleryChanges": 0,
      "qualityClass": 0,
      "checkoutDate": "2025-01-11",
      "ufi": 20091765,
      "photoUrls": [
        "https://cf.bstatic.com/xdata/images/hotel/square60/474390949.jpg?k=8fae07a5815e97f338b94436f5e12e1b05e230a09bb92aa78100a0c5465d6d1e&o="
      ],
      "longitude": -80.7013181095,
      "rankingPosition": 12,
      "blockIds": ["196903201_364071311_2_1_0"],
      "reviewScore": 9.4,
      "isFirstPage": true,
      "position": 12,
      "latitude": 35.3633114828,
      "accuratePropertyClass": 3,
      "name": "Homewood Suites by Hilton Concord",
      "currency": "USD",
      "checkin": { "fromTime": "15:00", "untilTime": "00:00" },
      "reviewScoreWord": "Wonderful",
      "mainPhotoId": 474390949,
      "checkout": { "untilTime": "12:00", "fromTime": "00:00" },
      "propertyClass": 3
    },
    {
      "propertyClass": 2,
      "checkout": { "untilTime": "11:00", "fromTime": "00:00" },
      "mainPhotoId": 423523220,
      "reviewScoreWord": "Pleasant",
      "checkin": { "untilTime": "00:00", "fromTime": "15:00" },
      "currency": "USD",
      "name": "Rodeway Inn",
      "accuratePropertyClass": 2,
      "position": 13,
      "latitude": 35.4355890027384,
      "isFirstPage": true,
      "blockIds": ["29110911_246682339_4_2_0"],
      "reviewScore": 6.5,
      "rankingPosition": 13,
      "longitude": -80.6634201854467,
      "photoUrls": [
        "https://cf.bstatic.com/xdata/images/hotel/square60/423523220.jpg?k=17981950a40cce17442d45735d498be864f413f421acc1bcaece097d37dd3892&o="
      ],
      "ufi": 20091765,
      "checkoutDate": "2025-01-11",
      "qualityClass": 0,
      "optOutFromGalleryChanges": 0,
      "wishlistName": "Concord",
      "reviewCount": 164,
      "id": 291109,
      "checkinDate": "2025-01-10",
      "priceBreakdown": {
        "taxExceptions": [],
        "benefitBadges": [],
        "grossPrice": {
          "currency": "USD",
          "amountRounded": "$85",
          "value": 85.0000000000001
        },
        "excludedPrice": { "currency": "USD", "value": 11.0500000000001 }
      },
      "countryCode": "us"
    },
    {
      "checkout": { "untilTime": "11:00", "fromTime": "00:00" },
      "propertyClass": 3,
      "currency": "USD",
      "reviewScoreWord": "Very Good",
      "checkin": { "untilTime": "23:00", "fromTime": "15:00" },
      "mainPhotoId": 485386036,
      "accuratePropertyClass": 3,
      "name": "Hampton Inn & Suites Concord-Charlotte",
      "rankingPosition": 14,
      "reviewScore": 8.1,
      "blockIds": ["18188704_266273959_2_1_0"],
      "isFirstPage": true,
      "latitude": 35.3692234523828,
      "position": 14,
      "ufi": 20091765,
      "photoUrls": [
        "https://cf.bstatic.com/xdata/images/hotel/square60/485386036.jpg?k=2a2dad0fcfb0264bde32581c79564d8fdf311fdf6891ba996f49777fe70c9bd9&o="
      ],
      "longitude": -80.7094100117683,
      "optOutFromGalleryChanges": 0,
      "checkoutDate": "2025-01-11",
      "qualityClass": 0,
      "countryCode": "us",
      "priceBreakdown": {
        "taxExceptions": [],
        "benefitBadges": [],
        "grossPrice": {
          "value": 179,
          "amountRounded": "$179",
          "currency": "USD"
        },
        "excludedPrice": { "value": 23.2700000000001, "currency": "USD" }
      },
      "wishlistName": "Concord",
      "checkinDate": "2025-01-10",
      "id": 181887,
      "reviewCount": 172
    },
    {
      "name": "Safari House Shared Space",
      "accuratePropertyClass": 0,
      "isFirstPage": true,
      "latitude": 35.3214577,
      "position": 15,
      "rankingPosition": 15,
      "reviewScore": 8.9,
      "blockIds": ["1186553201_391017748_1_0_0"],
      "propertyClass": 0,
      "checkout": { "fromTime": "11:00", "untilTime": "11:00" },
      "mainPhotoId": 544601243,
      "currency": "USD",
      "checkin": { "fromTime": "14:00", "untilTime": "23:00" },
      "reviewScoreWord": "Excellent",
      "priceBreakdown": {
        "taxExceptions": [],
        "excludedPrice": { "currency": "USD", "value": 25.6314000000001 },
        "grossPrice": {
          "value": 58.3200000000001,
          "amountRounded": "$58",
          "currency": "USD"
        },
        "benefitBadges": []
      },
      "wishlistName": "Concord",
      "checkinDate": "2025-01-10",
      "reviewCount": 42,
      "id": 11865532,
      "countryCode": "us",
      "photoUrls": [
        "https://cf.bstatic.com/xdata/images/hotel/square60/544601243.jpg?k=d45fe7e514347383cac0561bfba4af5e151cb3b79aa7197f2c64f8f8a7d29c37&o="
      ],
      "longitude": -80.6009252,
      "ufi": 20091765,
      "optOutFromGalleryChanges": 0,
      "qualityClass": 0,
      "checkoutDate": "2025-01-11"
    },
    {
      "mainPhotoId": 525024252,
      "currency": "USD",
      "reviewScoreWord": "Good",
      "checkin": { "untilTime": "00:00", "fromTime": "16:00" },
      "propertyClass": 4,
      "checkout": { "fromTime": "05:00", "untilTime": "11:00" },
      "isFirstPage": true,
      "position": 16,
      "latitude": 35.3624,
      "rankingPosition": 16,
      "reviewScore": 7.8,
      "blockIds": ["52236901_338940260_4_0_0"],
      "name": "Great Wolf Lodge Concord",
      "accuratePropertyClass": 4,
      "optOutFromGalleryChanges": 1,
      "checkoutDate": "2025-01-11",
      "qualityClass": 0,
      "photoUrls": [
        "https://cf.bstatic.com/xdata/images/hotel/square60/525024252.jpg?k=649255a0f9f2b734b85ba699295788a024c84dc5d20e803bb6b0e9e112a296c1&o="
      ],
      "longitude": -80.714139,
      "ufi": 20091765,
      "priceBreakdown": {
        "taxExceptions": [],
        "excludedPrice": { "value": 84.0600000000001, "currency": "USD" },
        "grossPrice": {
          "value": 299,
          "amountRounded": "$299",
          "currency": "USD"
        },
        "benefitBadges": []
      },
      "wishlistName": "Concord",
      "checkinDate": "2025-01-10",
      "id": 522369,
      "reviewCount": 82,
      "countryCode": "us"
    },
    {
      "countryCode": "us",
      "reviewCount": 3,
      "wishlistName": "Concord",
      "checkinDate": "2025-01-10",
      "id": 12519901,
      "priceBreakdown": {
        "taxExceptions": [],
        "grossPrice": {
          "amountRounded": "$203",
          "currency": "USD",
          "value": 202.5
        },
        "benefitBadges": [],
        "excludedPrice": { "value": 201.1125, "currency": "USD" }
      },
      "ufi": 20091765,
      "longitude": -80.6774041,
      "photoUrls": [
        "https://cf.bstatic.com/xdata/images/hotel/square60/582940811.jpg?k=393e291ae5c052f3cd6662c92d002dcf96d6cc6a62b7e7ca5ac9c922c4bb6e54&o="
      ],
      "qualityClass": 3,
      "checkoutDate": "2025-01-11",
      "optOutFromGalleryChanges": 0,
      "accuratePropertyClass": 0,
      "name": "Beautiful, Cozy home in Concord",
      "blockIds": ["1251990101_397706895_6_0_0"],
      "reviewScore": 8.3,
      "rankingPosition": 17,
      "position": 17,
      "latitude": 35.4524323,
      "isFirstPage": true,
      "checkout": { "fromTime": "00:00", "untilTime": "10:00" },
      "propertyClass": 0,
      "reviewScoreWord": "Very Good",
      "checkin": { "fromTime": "15:00", "untilTime": "00:00" },
      "currency": "USD",
      "mainPhotoId": 582940811
    },
    {
      "photoUrls": [
        "https://cf.bstatic.com/xdata/images/hotel/square60/247418336.jpg?k=9183ca734353cfe6d7fdd68cf8351af1c437d04348760eef69dcb371e021a25e&o="
      ],
      "longitude": -80.5894415080547,
      "ufi": 20093154,
      "optOutFromGalleryChanges": 0,
      "qualityClass": 0,
      "checkoutDate": "2025-01-11",
      "priceBreakdown": {
        "excludedPrice": { "currency": "USD", "value": 18.0700000000001 },
        "benefitBadges": [],
        "grossPrice": {
          "value": 139,
          "amountRounded": "$139",
          "currency": "USD"
        },
        "taxExceptions": []
      },
      "wishlistName": "Kannapolis",
      "checkinDate": "2025-01-10",
      "reviewCount": 184,
      "id": 184689,
      "isExtended": true,
      "countryCode": "us",
      "propertyClass": 2,
      "isPreferred": true,
      "checkout": { "untilTime": "11:00", "fromTime": "05:00" },
      "mainPhotoId": 247418336,
      "currency": "USD",
      "checkin": { "untilTime": "23:30", "fromTime": "16:00" },
      "reviewScoreWord": "Very Good",
      "name": "Holiday Inn Express Hotel & Suites - Concord, an IHG Hotel",
      "accuratePropertyClass": 2,
      "isFirstPage": true,
      "position": 18,
      "latitude": 35.4640080986987,
      "rankingPosition": 18,
      "blockIds": ["18468902_244944966_2_1_0"],
      "reviewScore": 8.4
    },
    {
      "reviewCount": 368,
      "wishlistName": "Kannapolis",
      "checkinDate": "2025-01-10",
      "id": 290759,
      "priceBreakdown": {
        "grossPrice": {
          "amountRounded": "$99",
          "currency": "USD",
          "value": 99.0500000000001
        },
        "benefitBadges": [],
        "excludedPrice": { "currency": "USD", "value": 12.8765000000001 },
        "taxExceptions": []
      },
      "countryCode": "us",
      "isExtended": true,
      "checkoutDate": "2025-01-11",
      "qualityClass": 0,
      "optOutFromGalleryChanges": 0,
      "longitude": -80.585308894515,
      "photoUrls": [
        "https://cf.bstatic.com/xdata/images/hotel/square60/169875916.jpg?k=e6f8d03b8936ba3f29cf5411e6018258bb0ef249c75dc3dc434fee8919db9de3&o="
      ],
      "ufi": 20093154,
      "position": 19,
      "latitude": 35.4623084572895,
      "isFirstPage": true,
      "reviewScore": 6.6,
      "blockIds": ["29075906_332136048_4_1_0"],
      "rankingPosition": 19,
      "name": "Sleep Inn Concord - Kannapolis",
      "accuratePropertyClass": 2,
      "mainPhotoId": 169875916,
      "checkin": { "fromTime": "15:00", "untilTime": "00:00" },
      "reviewScoreWord": "Pleasant",
      "currency": "USD",
      "propertyClass": 2,
      "checkout": { "untilTime": "11:00", "fromTime": "00:00" }
    }
  ],
  "meta": { "currentPage": 1, "limit": 20, "totalRecords": 70, "totalPage": 4 },
  "status": true,
  "message": "18 properties. + 52 properties around Concord"
}
